127.0.0.1 - - [04/Nov/2019:13:39:29 +0100] "GET /webService/servlet1 HTTP/1.1" 500 1490
127.0.0.1 - - [04/Nov/2019:13:39:34 +0100] "GET / HTTP/1.1" 200 11444
127.0.0.1 - - [04/Nov/2019:13:39:34 +0100] "GET /tomcat.css HTTP/1.1" 200 5926
127.0.0.1 - - [04/Nov/2019:13:39:34 +0100] "GET /tomcat.png HTTP/1.1" 200 5103
127.0.0.1 - - [04/Nov/2019:13:39:34 +0100] "GET /bg-nav.png HTTP/1.1" 200 1401
127.0.0.1 - - [04/Nov/2019:13:39:34 +0100] "GET /asf-logo.png HTTP/1.1" 200 17811
127.0.0.1 - - [04/Nov/2019:13:39:34 +0100] "GET /bg-upper.png HTTP/1.1" 200 3103
127.0.0.1 - - [04/Nov/2019:13:39:34 +0100] "GET /bg-middle.png HTTP/1.1" 200 1918
127.0.0.1 - - [04/Nov/2019:13:39:34 +0100] "GET /bg-button.png HTTP/1.1" 200 713
127.0.0.1 - - [04/Nov/2019:13:41:16 +0100] "GET /manager/html HTTP/1.1" 401 2550
127.0.0.1 - - [04/Nov/2019:13:41:25 +0100] "GET /manager/html HTTP/1.1" 401 2550
127.0.0.1 - - [04/Nov/2019:13:42:09 +0100] "GET /docs/manager-howto.html HTTP/1.1" 200 120019
127.0.0.1 - - [04/Nov/2019:13:42:09 +0100] "GET /docs/images/asf-logo.gif HTTP/1.1" 200 7279
127.0.0.1 - - [04/Nov/2019:13:42:09 +0100] "GET /docs/images/void.gif HTTP/1.1" 200 43
127.0.0.1 - - [04/Nov/2019:13:42:09 +0100] "GET /docs/images/tomcat.gif HTTP/1.1" 200 2066
127.0.0.1 - - [04/Nov/2019:13:48:35 +0100] "GET / HTTP/1.1" 200 11444
127.0.0.1 - - [04/Nov/2019:13:48:36 +0100] "GET /manager/html HTTP/1.1" 401 2550
127.0.0.1 - - [04/Nov/2019:13:48:47 +0100] "GET /manager/html HTTP/1.1" 401 2550
127.0.0.1 - - [04/Nov/2019:13:48:48 +0100] "GET /manager/html HTTP/1.1" 401 2550
127.0.0.1 - - [04/Nov/2019:13:48:54 +0100] "GET /manager/html HTTP/1.1" 401 2550
127.0.0.1 - - [04/Nov/2019:13:52:29 +0100] "GET / HTTP/1.1" 200 11444
127.0.0.1 - - [04/Nov/2019:13:52:30 +0100] "GET /manager/html HTTP/1.1" 401 2550
127.0.0.1 - - [04/Nov/2019:13:52:59 +0100] "GET /manager/html HTTP/1.1" 401 2550
127.0.0.1 - admin [04/Nov/2019:13:53:07 +0100] "GET /manager/html HTTP/1.1" 200 19610
127.0.0.1 - admin [04/Nov/2019:13:53:07 +0100] "GET /manager/images/asf-logo.gif HTTP/1.1" 200 7279
127.0.0.1 - admin [04/Nov/2019:13:53:07 +0100] "GET /manager/images/tomcat.gif HTTP/1.1" 200 2066
127.0.0.1 - - [04/Nov/2019:13:53:45 +0100] "GET / HTTP/1.1" 200 11444
127.0.0.1 - admin [04/Nov/2019:13:53:46 +0100] "GET /manager/html HTTP/1.1" 200 19610
127.0.0.1 - - [04/Nov/2019:13:54:02 +0100] "GET /examples/ HTTP/1.1" 200 1285
127.0.0.1 - - [04/Nov/2019:13:54:04 +0100] "GET /examples/jsp HTTP/1.1" 302 -
127.0.0.1 - - [04/Nov/2019:13:54:04 +0100] "GET /examples/jsp/ HTTP/1.1" 200 19573
127.0.0.1 - - [04/Nov/2019:13:54:04 +0100] "GET /examples/jsp/images/code.gif HTTP/1.1" 200 292
127.0.0.1 - - [04/Nov/2019:13:54:04 +0100] "GET /examples/jsp/images/return.gif HTTP/1.1" 200 1231
127.0.0.1 - - [04/Nov/2019:13:54:04 +0100] "GET /examples/jsp/images/execute.gif HTTP/1.1" 200 1242
127.0.0.1 - - [04/Nov/2019:13:54:09 +0100] "GET /examples/jsp/jsp2/el/basic-arithmetic.jsp HTTP/1.1" 200 1582
127.0.0.1 - - [04/Nov/2019:13:54:18 +0100] "GET /examples/jsp/jsp2/el/basic-comparisons.jsp HTTP/1.1" 200 2343
127.0.0.1 - - [04/Nov/2019:13:54:23 +0100] "GET /examples/jsp/jsp2/el/basic-arithmetic.jsp HTTP/1.1" 200 1582
